2022-05-03 11:33:15.324 +05:00 [INF] User profile is available. Using 'C:\Users\gexop\AppData\Local\ASP.NET\DataProtection-Keys' as key repository and Windows DPAPI to encrypt keys at rest.
2022-05-03 11:33:16.616 +05:00 [INF] Now listening on: https://localhost:5001
2022-05-03 11:33:16.616 +05:00 [INF] Now listening on: http://localhost:5000
2022-05-03 11:33:16.621 +05:00 [INF] Application started. Press Ctrl+C to shut down.
2022-05-03 11:33:16.621 +05:00 [INF] Hosting environment: Development
2022-05-03 11:33:16.622 +05:00 [INF] Content root path: C:\Users\gexop\source\repos\AniRate\AnirateWeb\AniRate\AniRate.Api\AniRate.WebApi
2022-05-03 11:33:17.554 +05:00 [INF] Request starting HTTP/2 GET https://localhost:5001/ - -
2022-05-03 11:33:17.693 +05:00 [INF] Request finished HTTP/2 GET https://localhost:5001/ - - - 301 0 - 142.3644ms
2022-05-03 11:33:17.722 +05:00 [INF] Request starting HTTP/2 GET https://localhost:5001/index.html - -
2022-05-03 11:33:18.011 +05:00 [INF] Request starting HTTP/2 GET https://localhost:5001/swagger-ui.css - -
2022-05-03 11:33:18.014 +05:00 [INF] Request starting HTTP/2 GET https://localhost:5001/swagger-ui-standalone-preset.js - -
2022-05-03 11:33:18.014 +05:00 [INF] Request starting HTTP/2 GET https://localhost:5001/swagger-ui-bundle.js - -
2022-05-03 11:33:18.014 +05:00 [INF] Request starting HTTP/2 GET https://localhost:5001/_framework/aspnetcore-browser-refresh.js - -
2022-05-03 11:33:18.017 +05:00 [INF] Request finished HTTP/2 GET https://localhost:5001/index.html - - - 200 - text/html;charset=utf-8 295.1275ms
2022-05-03 11:33:18.022 +05:00 [INF] Request finished HTTP/2 GET https://localhost:5001/_framework/aspnetcore-browser-refresh.js - - - 200 11986 application/javascript;+charset=utf-8 8.7328ms
2022-05-03 11:33:18.041 +05:00 [INF] Sending file. Request path: '/swagger-ui.css'. Physical path: 'N/A'
2022-05-03 11:33:18.041 +05:00 [INF] Sending file. Request path: '/swagger-ui-standalone-preset.js'. Physical path: 'N/A'
2022-05-03 11:33:18.041 +05:00 [INF] Request finished HTTP/2 GET https://localhost:5001/swagger-ui.css - - - 200 143821 text/css 29.7260ms
2022-05-03 11:33:18.041 +05:00 [INF] Request finished HTTP/2 GET https://localhost:5001/swagger-ui-standalone-preset.js - - - 200 319705 application/javascript 27.2903ms
2022-05-03 11:33:18.069 +05:00 [INF] Sending file. Request path: '/swagger-ui-bundle.js'. Physical path: 'N/A'
2022-05-03 11:33:18.069 +05:00 [INF] Request finished HTTP/2 GET https://localhost:5001/swagger-ui-bundle.js - - - 200 1079362 application/javascript 54.8295ms
2022-05-03 11:33:18.474 +05:00 [INF] Request starting HTTP/2 GET https://localhost:5001/swagger/v1/swagger.json - -
2022-05-03 11:33:18.735 +05:00 [INF] Request finished HTTP/2 GET https://localhost:5001/swagger/v1/swagger.json - - - 200 - application/json;charset=utf-8 261.3262ms
2022-05-03 11:33:32.302 +05:00 [INF] Request starting HTTP/1.1 GET https://localhost:5001/api/AnimeTitles/ - -
2022-05-03 11:33:32.874 +05:00 [INF] Executing endpoint 'AniRate.WebApi.Controllers.AnimeTitlesController.GetAll (AniRate.WebApi)'
2022-05-03 11:33:32.909 +05:00 [INF] Route matched with {action = "GetAll", controller = "AnimeTitles"}. Executing controller action with signature System.Threading.Tasks.Task`1[Microsoft.AspNetCore.Mvc.ActionResult`1[AniRate.Application.Common.Models.PaginatedList`1[AniRate.Application.AnimeTitles.Queries.BriefTitleVM]]] GetAll(AniRate.Application.AnimeTitles.Queries.GetTitles.GetTitlesQuery) on controller AniRate.WebApi.Controllers.AnimeTitlesController (AniRate.WebApi).
2022-05-03 11:33:33.227 +05:00 [INF] AniRate Request: GetTitlesQuery "00000000-0000-0000-0000-000000000000" {"PageNumber":1,"PageSize":10,"$type":"GetTitlesQuery"}
2022-05-03 11:33:34.349 +05:00 [INF] Entity Framework Core 6.0.3 initialized 'ApplicationDbContext' using provider 'Microsoft.EntityFrameworkCore.SqlServer:6.0.3' with options: MigrationsAssembly=AniRate.Infrastructure, Version=1.0.0.0, Culture=neutral, PublicKeyToken=null 
2022-05-03 11:33:43.491 +05:00 [INF] Executed DbCommand (75ms) [Parameters=[], CommandType='"Text"', CommandTimeout='30']
SELECT COUNT(*)
FROM [AnimeTitles] AS [a]
2022-05-03 11:33:43.720 +05:00 [INF] Executed DbCommand (43ms) [Parameters=[@__p_0='?' (DbType = Int32), @__p_1='?' (DbType = Int32)], CommandType='"Text"', CommandTimeout='30']
SELECT [t].[Id], [t].[Name], [t].[Russian], [t].[Score], [i].[Id], [i].[AnimeId], [i].[Original], [i].[Preview], [i].[X48], [i].[X96]
FROM (
    SELECT [a].[Id], [a].[Name], [a].[Russian], [a].[Score]
    FROM [AnimeTitles] AS [a]
    ORDER BY [a].[Score] DESC
    OFFSET @__p_0 ROWS FETCH NEXT @__p_1 ROWS ONLY
) AS [t]
LEFT JOIN [Images] AS [i] ON [t].[Id] = [i].[AnimeId]
ORDER BY [t].[Score] DESC
2022-05-03 11:33:43.798 +05:00 [INF] Executing OkObjectResult, writing value of type 'AniRate.Application.Common.Models.PaginatedList`1[[AniRate.Application.AnimeTitles.Queries.BriefTitleVM, AniRate.Application, Version=1.0.0.0, Culture=neutral, PublicKeyToken=null]]'.
2022-05-03 11:33:43.953 +05:00 [INF] Executed action AniRate.WebApi.Controllers.AnimeTitlesController.GetAll (AniRate.WebApi) in 11033.7787ms
2022-05-03 11:33:43.955 +05:00 [INF] Executed endpoint 'AniRate.WebApi.Controllers.AnimeTitlesController.GetAll (AniRate.WebApi)'
2022-05-03 11:33:43.963 +05:00 [INF] Request finished HTTP/1.1 GET https://localhost:5001/api/AnimeTitles/ - - - 200 - application/json;+charset=utf-8 11660.4923ms
2022-05-03 11:33:50.594 +05:00 [INF] Request starting HTTP/1.1 GET https://localhost:5001/api/AnimeTitles/eaf372b3-cdb6-4e1d-8422-eaeb5cda2527 - -
2022-05-03 11:33:50.597 +05:00 [INF] Executing endpoint 'AniRate.WebApi.Controllers.AnimeTitlesController.GetDetails (AniRate.WebApi)'
2022-05-03 11:33:50.601 +05:00 [INF] Route matched with {action = "GetDetails", controller = "AnimeTitles"}. Executing controller action with signature System.Threading.Tasks.Task`1[Microsoft.AspNetCore.Mvc.ActionResult`1[AniRate.Application.AnimeTitles.Queries.TitleDetailsVM]] GetDetails(System.Guid) on controller AniRate.WebApi.Controllers.AnimeTitlesController (AniRate.WebApi).
2022-05-03 11:33:50.634 +05:00 [INF] AniRate Request: GetTitleDetailsQuery "00000000-0000-0000-0000-000000000000" {"Id":"eaf372b3-cdb6-4e1d-8422-eaeb5cda2527","$type":"GetTitleDetailsQuery"}
2022-05-03 11:33:50.701 +05:00 [INF] Entity Framework Core 6.0.3 initialized 'ApplicationDbContext' using provider 'Microsoft.EntityFrameworkCore.SqlServer:6.0.3' with options: MigrationsAssembly=AniRate.Infrastructure, Version=1.0.0.0, Culture=neutral, PublicKeyToken=null 
2022-05-03 11:33:50.793 +05:00 [WRN] Compiling a query which loads related collections for more than one collection navigation, either via 'Include' or through projection, but no 'QuerySplittingBehavior' has been configured. By default, Entity Framework will use 'QuerySplittingBehavior.SingleQuery', which can potentially result in slow query performance. See https://go.microsoft.com/fwlink/?linkid=2134277 for more information. To identify the query that's triggering this warning call 'ConfigureWarnings(w => w.Throw(RelationalEventId.MultipleCollectionIncludeWarning))'.
2022-05-03 11:33:50.820 +05:00 [INF] Executed DbCommand (14ms) [Parameters=[@__request_Id_0='?' (DbType = Guid)], CommandType='"Text"', CommandTimeout='30']
SELECT [a].[Id], [a].[Name], [a].[Russian], [a].[Score], [a].[Episodes], [a].[AiredOn], [a].[ReleasedOn], [a].[Description], [a].[DescriptionHtml], [i].[Id], [i].[AnimeId], [i].[Original], [i].[Preview], [i].[X48], [i].[X96], [g].[Id], [g].[AnimeId], [g].[Name], [g].[Russian], [a].[UserComment], [a].[UserRating], [t].[Id], [t].[ImageId], [t].[Name], [t].[UserComment], [t].[UserId], [t].[UserRating], [t].[AnimeCollectionsId], [t].[AnimeTitlesId]
FROM [AnimeTitles] AS [a]
LEFT JOIN [Images] AS [i] ON [a].[Id] = [i].[AnimeId]
LEFT JOIN [Genres] AS [g] ON [a].[Id] = [g].[AnimeId]
LEFT JOIN (
    SELECT [a1].[Id], [a1].[ImageId], [a1].[Name], [a1].[UserComment], [a1].[UserId], [a1].[UserRating], [a0].[AnimeCollectionsId], [a0].[AnimeTitlesId]
    FROM [AnimeCollectionAnimeTitle] AS [a0]
    INNER JOIN [AnimeCollections] AS [a1] ON [a0].[AnimeCollectionsId] = [a1].[Id]
) AS [t] ON [a].[Id] = [t].[AnimeTitlesId]
WHERE [a].[Id] = @__request_Id_0
ORDER BY [a].[Id], [i].[Id], [g].[Id], [t].[AnimeCollectionsId], [t].[AnimeTitlesId]
2022-05-03 11:33:50.901 +05:00 [INF] Executing OkObjectResult, writing value of type 'AniRate.Application.AnimeTitles.Queries.TitleDetailsVM'.
2022-05-03 11:33:50.917 +05:00 [INF] Executed action AniRate.WebApi.Controllers.AnimeTitlesController.GetDetails (AniRate.WebApi) in 315.7877ms
2022-05-03 11:33:50.917 +05:00 [INF] Executed endpoint 'AniRate.WebApi.Controllers.AnimeTitlesController.GetDetails (AniRate.WebApi)'
2022-05-03 11:33:50.917 +05:00 [INF] Request finished HTTP/1.1 GET https://localhost:5001/api/AnimeTitles/eaf372b3-cdb6-4e1d-8422-eaeb5cda2527 - - - 200 - application/json;+charset=utf-8 323.3155ms
2022-05-03 11:34:26.254 +05:00 [INF] Request starting HTTP/1.1 POST https://localhost:5001/api/auth/login application/json 63
2022-05-03 11:34:26.257 +05:00 [INF] Executing endpoint 'AniRate.WebApi.Controllers.AuthController.Login (AniRate.WebApi)'
2022-05-03 11:34:26.260 +05:00 [INF] Route matched with {action = "Login", controller = "Auth"}. Executing controller action with signature System.Threading.Tasks.Task`1[Microsoft.AspNetCore.Mvc.IActionResult] Login(AniRate.WebApi.Models.AuthModels.LoginViewModel) on controller AniRate.WebApi.Controllers.AuthController (AniRate.WebApi).
2022-05-03 11:34:26.285 +05:00 [INF] Entity Framework Core 6.0.3 initialized 'ApplicationDbContext' using provider 'Microsoft.EntityFrameworkCore.SqlServer:6.0.3' with options: MigrationsAssembly=AniRate.Infrastructure, Version=1.0.0.0, Culture=neutral, PublicKeyToken=null 
2022-05-03 11:34:26.308 +05:00 [INF] Executed DbCommand (7ms) [Parameters=[@__loginViewModel_Username_0='?' (Size = 200), @__loginViewModel_Password_1='?' (Size = 200)], CommandType='"Text"', CommandTimeout='30']
SELECT TOP(2) [a].[Id], [a].[Password], [a].[UserName]
FROM [Accounts] AS [a]
WHERE ([a].[UserName] = @__loginViewModel_Username_0) AND ([a].[Password] = @__loginViewModel_Password_1)
2022-05-03 11:34:26.660 +05:00 [INF] Executing OkObjectResult, writing value of type '<>f__AnonymousType0`1[[System.String, System.Private.CoreLib, Version=6.0.0.0, Culture=neutral, PublicKeyToken=7cec85d7bea7798e]]'.
2022-05-03 11:34:26.661 +05:00 [INF] Executed action AniRate.WebApi.Controllers.AuthController.Login (AniRate.WebApi) in 400.5641ms
2022-05-03 11:34:26.661 +05:00 [INF] Executed endpoint 'AniRate.WebApi.Controllers.AuthController.Login (AniRate.WebApi)'
2022-05-03 11:34:26.661 +05:00 [INF] Request finished HTTP/1.1 POST https://localhost:5001/api/auth/login application/json 63 - 200 - application/json;+charset=utf-8 406.9093ms
2022-05-03 11:34:58.185 +05:00 [INF] Request starting HTTP/1.1 POST https://localhost:5001/api/AnimeCollections/collection application/json 49
2022-05-03 11:34:58.294 +05:00 [INF] Executing endpoint 'AniRate.WebApi.Controllers.AnimeCollectionsController.Create (AniRate.WebApi)'
2022-05-03 11:34:58.296 +05:00 [INF] Route matched with {action = "Create", controller = "AnimeCollections"}. Executing controller action with signature System.Threading.Tasks.Task`1[Microsoft.AspNetCore.Mvc.ActionResult`1[System.Guid]] Create(AniRate.WebApi.Models.AnimeCollectionsDtos.CreateCollectionDto) on controller AniRate.WebApi.Controllers.AnimeCollectionsController (AniRate.WebApi).
2022-05-03 11:35:28.936 +05:00 [INF] User profile is available. Using 'C:\Users\gexop\AppData\Local\ASP.NET\DataProtection-Keys' as key repository and Windows DPAPI to encrypt keys at rest.
2022-05-03 11:35:29.602 +05:00 [INF] Now listening on: https://localhost:5001
2022-05-03 11:35:29.602 +05:00 [INF] Now listening on: http://localhost:5000
2022-05-03 11:35:29.607 +05:00 [INF] Application started. Press Ctrl+C to shut down.
2022-05-03 11:35:29.607 +05:00 [INF] Hosting environment: Development
2022-05-03 11:35:29.607 +05:00 [INF] Content root path: C:\Users\gexop\source\repos\AniRate\AnirateWeb\AniRate\AniRate.Api\AniRate.WebApi
2022-05-03 11:35:30.477 +05:00 [INF] Request starting HTTP/2 GET https://localhost:5001/index.html - -
2022-05-03 11:35:30.794 +05:00 [INF] Request finished HTTP/2 GET https://localhost:5001/index.html - - - 200 - text/html;charset=utf-8 321.6560ms
2022-05-03 11:35:30.795 +05:00 [INF] Request starting HTTP/2 GET https://localhost:5001/_framework/aspnetcore-browser-refresh.js - -
2022-05-03 11:35:30.812 +05:00 [INF] Request finished HTTP/2 GET https://localhost:5001/_framework/aspnetcore-browser-refresh.js - - - 200 11986 application/javascript;+charset=utf-8 17.4199ms
2022-05-03 11:35:31.309 +05:00 [INF] Request starting HTTP/2 GET https://localhost:5001/swagger/v1/swagger.json - -
2022-05-03 11:35:31.548 +05:00 [INF] Request finished HTTP/2 GET https://localhost:5001/swagger/v1/swagger.json - - - 200 - application/json;charset=utf-8 239.0873ms
2022-05-03 11:35:34.385 +05:00 [INF] Request starting HTTP/1.1 POST https://localhost:5001/api/AnimeCollections/collection application/json 95
2022-05-03 11:35:34.878 +05:00 [INF] Executing endpoint 'AniRate.WebApi.Controllers.AnimeCollectionsController.Create (AniRate.WebApi)'
2022-05-03 11:35:34.914 +05:00 [INF] Route matched with {action = "Create", controller = "AnimeCollections"}. Executing controller action with signature System.Threading.Tasks.Task`1[Microsoft.AspNetCore.Mvc.ActionResult`1[System.Guid]] Create(AniRate.WebApi.Models.AnimeCollectionsDtos.CreateCollectionDto) on controller AniRate.WebApi.Controllers.AnimeCollectionsController (AniRate.WebApi).
2022-05-03 11:35:40.250 +05:00 [INF] Executed action AniRate.WebApi.Controllers.AnimeCollectionsController.Create (AniRate.WebApi) in 5329.6771ms
2022-05-03 11:35:40.252 +05:00 [INF] Executed endpoint 'AniRate.WebApi.Controllers.AnimeCollectionsController.Create (AniRate.WebApi)'
2022-05-03 11:35:40.258 +05:00 [ERR] An unhandled exception has occurred while executing the request.
FluentValidation.ValidationException: Validation failed: 
 -- AnimeTitlesIds[0]: 'Anime Titles Ids' не должно быть равно '00000000-0000-0000-0000-000000000000'. Severity: Error
   at AniRate.Application.Common.Behaviors.ValidationBehavior`2.Handle(TRequest request, CancellationToken cancellationToken, RequestHandlerDelegate`1 next) in C:\Users\gexop\source\repos\AniRate\AnirateWeb\AniRate\AniRate.Api\AniRate.Application\Common\Behaviors\ValidationBehavior.cs:line 27
   at MediatR.Wrappers.RequestHandlerWrapperImpl`2.<>c__DisplayClass1_1.<Handle>b__2()
   at MediatR.Pipeline.RequestExceptionProcessorBehavior`2.Handle(TRequest request, CancellationToken cancellationToken, RequestHandlerDelegate`1 next)
   at MediatR.Pipeline.RequestExceptionProcessorBehavior`2.Handle(TRequest request, CancellationToken cancellationToken, RequestHandlerDelegate`1 next)
   at MediatR.Pipeline.RequestExceptionActionProcessorBehavior`2.Handle(TRequest request, CancellationToken cancellationToken, RequestHandlerDelegate`1 next)
   at MediatR.Pipeline.RequestExceptionActionProcessorBehavior`2.Handle(TRequest request, CancellationToken cancellationToken, RequestHandlerDelegate`1 next)
   at MediatR.Pipeline.RequestPostProcessorBehavior`2.Handle(TRequest request, CancellationToken cancellationToken, RequestHandlerDelegate`1 next)
   at MediatR.Pipeline.RequestPreProcessorBehavior`2.Handle(TRequest request, CancellationToken cancellationToken, RequestHandlerDelegate`1 next)
   at AniRate.WebApi.Controllers.AnimeCollectionsController.Create(CreateCollectionDto createCollectionDto) in C:\Users\gexop\source\repos\AniRate\AnirateWeb\AniRate\AniRate.Api\AniRate.WebApi\Controllers\AnimeCollectionsController.cs:line 78
   at lambda_method10(Closure , Object )
   at Microsoft.AspNetCore.Mvc.Infrastructure.ActionMethodExecutor.AwaitableObjectResultExecutor.Execute(IActionResultTypeMapper mapper, ObjectMethodExecutor executor, Object controller, Object[] arguments)
   at Microsoft.AspNetCore.Mvc.Infrastructure.ControllerActionInvoker.<InvokeActionMethodAsync>g__Awaited|12_0(ControllerActionInvoker invoker, ValueTask`1 actionResultValueTask)
   at Microsoft.AspNetCore.Mvc.Infrastructure.ControllerActionInvoker.<InvokeNextActionFilterAsync>g__Awaited|10_0(ControllerActionInvoker invoker, Task lastTask, State next, Scope scope, Object state, Boolean isCompleted)
   at Microsoft.AspNetCore.Mvc.Infrastructure.ControllerActionInvoker.Rethrow(ActionExecutedContextSealed context)
   at Microsoft.AspNetCore.Mvc.Infrastructure.ControllerActionInvoker.Next(State& next, Scope& scope, Object& state, Boolean& isCompleted)
   at Microsoft.AspNetCore.Mvc.Infrastructure.ControllerActionInvoker.InvokeInnerFilterAsync()
--- End of stack trace from previous location ---
   at Microsoft.AspNetCore.Mvc.Infrastructure.ResourceInvoker.<InvokeFilterPipelineAsync>g__Awaited|20_0(ResourceInvoker invoker, Task lastTask, State next, Scope scope, Object state, Boolean isCompleted)
   at Microsoft.AspNetCore.Mvc.Infrastructure.ResourceInvoker.<InvokeAsync>g__Logged|17_1(ResourceInvoker invoker)
   at Microsoft.AspNetCore.Mvc.Infrastructure.ResourceInvoker.<InvokeAsync>g__Logged|17_1(ResourceInvoker invoker)
   at Microsoft.AspNetCore.Routing.EndpointMiddleware.<Invoke>g__AwaitRequestTask|6_0(Endpoint endpoint, Task requestTask, ILogger logger)
   at Microsoft.AspNetCore.Authorization.Policy.AuthorizationMiddlewareResultHandler.HandleAsync(RequestDelegate next, HttpContext context, AuthorizationPolicy policy, PolicyAuthorizationResult authorizeResult)
   at Microsoft.AspNetCore.Authorization.AuthorizationMiddleware.Invoke(HttpContext context)
   at Microsoft.AspNetCore.Authentication.AuthenticationMiddleware.Invoke(HttpContext context)
   at Swashbuckle.AspNetCore.SwaggerUI.SwaggerUIMiddleware.Invoke(HttpContext httpContext)
   at Swashbuckle.AspNetCore.Swagger.SwaggerMiddleware.Invoke(HttpContext httpContext, ISwaggerProvider swaggerProvider)
   at Microsoft.AspNetCore.Diagnostics.DeveloperExceptionPageMiddleware.Invoke(HttpContext context)
2022-05-03 11:35:40.337 +05:00 [INF] Request finished HTTP/1.1 POST https://localhost:5001/api/AnimeCollections/collection application/json 95 - 500 - text/plain;+charset=utf-8 5951.4014ms
2022-05-03 12:28:33.893 +05:00 [INF] User profile is available. Using 'C:\Users\gexop\AppData\Local\ASP.NET\DataProtection-Keys' as key repository and Windows DPAPI to encrypt keys at rest.
2022-05-03 12:28:34.584 +05:00 [INF] Now listening on: https://localhost:5001
2022-05-03 12:28:34.584 +05:00 [INF] Now listening on: http://localhost:5000
2022-05-03 12:28:34.588 +05:00 [INF] Application started. Press Ctrl+C to shut down.
2022-05-03 12:28:34.589 +05:00 [INF] Hosting environment: Development
2022-05-03 12:28:34.589 +05:00 [INF] Content root path: C:\Users\gexop\source\repos\AniRate\AnirateWeb\AniRate\AniRate.Api\AniRate.WebApi
2022-05-03 12:28:35.059 +05:00 [INF] Request starting HTTP/2 GET https://localhost:5001/index.html - -
2022-05-03 12:28:35.372 +05:00 [INF] Request finished HTTP/2 GET https://localhost:5001/index.html - - - 200 - text/html;charset=utf-8 315.6850ms
2022-05-03 12:28:35.375 +05:00 [INF] Request starting HTTP/2 GET https://localhost:5001/_framework/aspnetcore-browser-refresh.js - -
2022-05-03 12:28:35.392 +05:00 [INF] Request finished HTTP/2 GET https://localhost:5001/_framework/aspnetcore-browser-refresh.js - - - 200 11986 application/javascript;+charset=utf-8 17.3731ms
2022-05-03 12:28:35.902 +05:00 [INF] Request starting HTTP/2 GET https://localhost:5001/swagger/v1/swagger.json - -
2022-05-03 12:28:36.177 +05:00 [INF] Request finished HTTP/2 GET https://localhost:5001/swagger/v1/swagger.json - - - 200 - application/json;charset=utf-8 275.4986ms
2022-05-03 12:28:55.470 +05:00 [INF] Request starting HTTP/1.1 POST https://localhost:5001/api/AnimeCollections/collection application/json 57
2022-05-03 12:28:55.861 +05:00 [INF] Executing endpoint 'AniRate.WebApi.Controllers.AnimeCollectionsController.Create (AniRate.WebApi)'
2022-05-03 12:28:55.897 +05:00 [INF] Route matched with {action = "Create", controller = "AnimeCollections"}. Executing controller action with signature System.Threading.Tasks.Task`1[Microsoft.AspNetCore.Mvc.ActionResult`1[System.Guid]] Create(AniRate.WebApi.Models.AnimeCollectionsDtos.CreateCollectionDto) on controller AniRate.WebApi.Controllers.AnimeCollectionsController (AniRate.WebApi).
2022-05-03 12:28:56.261 +05:00 [INF] AniRate Request: CreateCollectionCommand "a9168c5e-ceb2-4faa-b6bf-329bf39fa1e4" {"UserId":"a9168c5e-ceb2-4faa-b6bf-329bf39fa1e4","Name":"new coll","AnimeTitlesIds":[],"$type":"CreateCollectionCommand"}
2022-05-03 12:28:57.573 +05:00 [INF] Entity Framework Core 6.0.3 initialized 'ApplicationDbContext' using provider 'Microsoft.EntityFrameworkCore.SqlServer:6.0.3' with options: MigrationsAssembly=AniRate.Infrastructure, Version=1.0.0.0, Culture=neutral, PublicKeyToken=null 
2022-05-03 12:29:00.006 +05:00 [INF] Executed DbCommand (113ms) [Parameters=[@p0='?' (DbType = Guid), @p1='?' (DbType = Guid), @p2='?' (Size = 200), @p3='?' (Size = 4000), @p4='?' (DbType = Guid), @p5='?' (DbType = Double)], CommandType='"Text"', CommandTimeout='30']
SET NOCOUNT ON;
INSERT INTO [AnimeCollections] ([Id], [ImageId], [Name], [UserComment], [UserId], [UserRating])
VALUES (@p0, @p1, @p2, @p3, @p4, @p5);
2022-05-03 12:29:00.063 +05:00 [INF] Executing OkObjectResult, writing value of type 'System.Guid'.
2022-05-03 12:29:00.075 +05:00 [INF] Executed action AniRate.WebApi.Controllers.AnimeCollectionsController.Create (AniRate.WebApi) in 4171.4426ms
2022-05-03 12:29:00.076 +05:00 [INF] Executed endpoint 'AniRate.WebApi.Controllers.AnimeCollectionsController.Create (AniRate.WebApi)'
2022-05-03 12:29:00.081 +05:00 [INF] Request finished HTTP/1.1 POST https://localhost:5001/api/AnimeCollections/collection application/json 57 - 200 - application/json;+charset=utf-8 4610.9386ms
2022-05-03 18:43:26.325 +05:00 [INF] User profile is available. Using 'C:\Users\gexop\AppData\Local\ASP.NET\DataProtection-Keys' as key repository and Windows DPAPI to encrypt keys at rest.
2022-05-03 18:43:27.018 +05:00 [INF] Now listening on: https://localhost:5001
2022-05-03 18:43:27.018 +05:00 [INF] Now listening on: http://localhost:5000
2022-05-03 18:43:27.024 +05:00 [INF] Application started. Press Ctrl+C to shut down.
2022-05-03 18:43:27.024 +05:00 [INF] Hosting environment: Development
2022-05-03 18:43:27.024 +05:00 [INF] Content root path: C:\Users\gexop\source\repos\AniRate\AnirateWeb\AniRate\AniRate.Api\AniRate.WebApi
2022-05-03 18:43:27.766 +05:00 [INF] Request starting HTTP/2 GET https://localhost:5001/index.html - -
2022-05-03 18:43:28.184 +05:00 [INF] Request finished HTTP/2 GET https://localhost:5001/index.html - - - 200 - text/html;charset=utf-8 421.0376ms
2022-05-03 18:43:28.214 +05:00 [INF] Request starting HTTP/2 GET https://localhost:5001/_framework/aspnetcore-browser-refresh.js - -
2022-05-03 18:43:28.220 +05:00 [INF] Request finished HTTP/2 GET https://localhost:5001/_framework/aspnetcore-browser-refresh.js - - - 200 11986 application/javascript;+charset=utf-8 6.0799ms
2022-05-03 18:43:28.715 +05:00 [INF] Request starting HTTP/2 GET https://localhost:5001/swagger/v1/swagger.json - -
2022-05-03 18:43:28.976 +05:00 [INF] Request finished HTTP/2 GET https://localhost:5001/swagger/v1/swagger.json - - - 200 - application/json;charset=utf-8 261.7795ms
2022-05-03 18:43:44.191 +05:00 [INF] Request starting HTTP/1.1 POST https://localhost:5001/api/auth/login application/json 63
2022-05-03 18:43:44.390 +05:00 [INF] Executing endpoint 'AniRate.WebApi.Controllers.AuthController.Login (AniRate.WebApi)'
2022-05-03 18:43:44.432 +05:00 [INF] Route matched with {action = "Login", controller = "Auth"}. Executing controller action with signature System.Threading.Tasks.Task`1[Microsoft.AspNetCore.Mvc.IActionResult] Login(AniRate.WebApi.Models.AuthModels.LoginViewModel) on controller AniRate.WebApi.Controllers.AuthController (AniRate.WebApi).
2022-05-03 18:43:45.637 +05:00 [INF] Entity Framework Core 6.0.3 initialized 'ApplicationDbContext' using provider 'Microsoft.EntityFrameworkCore.SqlServer:6.0.3' with options: MigrationsAssembly=AniRate.Infrastructure, Version=1.0.0.0, Culture=neutral, PublicKeyToken=null 
2022-05-03 18:43:53.971 +05:00 [INF] Executed DbCommand (174ms) [Parameters=[@__loginViewModel_Username_0='?' (Size = 200), @__loginViewModel_Password_1='?' (Size = 200)], CommandType='"Text"', CommandTimeout='30']
SELECT TOP(2) [a].[Id], [a].[Password], [a].[UserName]
FROM [Accounts] AS [a]
WHERE ([a].[UserName] = @__loginViewModel_Username_0) AND ([a].[Password] = @__loginViewModel_Password_1)
2022-05-03 18:43:54.301 +05:00 [INF] Executing OkObjectResult, writing value of type '<>f__AnonymousType0`1[[System.String, System.Private.CoreLib, Version=6.0.0.0, Culture=neutral, PublicKeyToken=7cec85d7bea7798e]]'.
2022-05-03 18:43:54.315 +05:00 [INF] Executed action AniRate.WebApi.Controllers.AuthController.Login (AniRate.WebApi) in 9877.2706ms
2022-05-03 18:43:54.316 +05:00 [INF] Executed endpoint 'AniRate.WebApi.Controllers.AuthController.Login (AniRate.WebApi)'
2022-05-03 18:43:54.321 +05:00 [INF] Request finished HTTP/1.1 POST https://localhost:5001/api/auth/login application/json 63 - 200 - application/json;+charset=utf-8 10129.6625ms
2022-05-03 18:44:20.238 +05:00 [INF] Request starting HTTP/1.1 GET https://localhost:5001/api/AnimeCollections - -
2022-05-03 18:44:20.328 +05:00 [INF] Executing endpoint 'AniRate.WebApi.Controllers.AnimeCollectionsController.GetAll (AniRate.WebApi)'
2022-05-03 18:44:20.332 +05:00 [INF] Route matched with {action = "GetAll", controller = "AnimeCollections"}. Executing controller action with signature System.Threading.Tasks.Task`1[Microsoft.AspNetCore.Mvc.ActionResult`1[AniRate.Application.Common.Models.PaginatedList`1[AniRate.Application.AnimeCollections.Queries.BriefCollectionVM]]] GetAll() on controller AniRate.WebApi.Controllers.AnimeCollectionsController (AniRate.WebApi).
2022-05-03 18:44:20.596 +05:00 [INF] AniRate Request: GetCollectionsQuery "a9168c5e-ceb2-4faa-b6bf-329bf39fa1e4" {"UserId":"a9168c5e-ceb2-4faa-b6bf-329bf39fa1e4","PageNumber":1,"PageSize":10,"$type":"GetCollectionsQuery"}
2022-05-03 18:44:20.655 +05:00 [INF] Entity Framework Core 6.0.3 initialized 'ApplicationDbContext' using provider 'Microsoft.EntityFrameworkCore.SqlServer:6.0.3' with options: MigrationsAssembly=AniRate.Infrastructure, Version=1.0.0.0, Culture=neutral, PublicKeyToken=null 
2022-05-03 18:44:20.812 +05:00 [INF] Executed DbCommand (36ms) [Parameters=[@__request_UserId_0='?' (DbType = Guid)], CommandType='"Text"', CommandTimeout='30']
SELECT COUNT(*)
FROM [AnimeCollections] AS [a]
WHERE [a].[UserId] = @__request_UserId_0
2022-05-03 18:44:20.898 +05:00 [INF] Executed DbCommand (15ms) [Parameters=[@__request_UserId_0='?' (DbType = Guid), @__p_1='?' (DbType = Int32), @__p_2='?' (DbType = Int32)], CommandType='"Text"', CommandTimeout='30']
SELECT [t].[Id], [t].[Name], [i].[Id], [i].[AnimeId], [i].[Original], [i].[Preview], [i].[X48], [i].[X96]
FROM (
    SELECT [a].[Id], [a].[ImageId], [a].[Name], (
        SELECT COUNT(*)
        FROM [AnimeCollectionAnimeTitle] AS [a0]
        INNER JOIN [AnimeTitles] AS [a1] ON [a0].[AnimeTitlesId] = [a1].[Id]
        WHERE [a].[Id] = [a0].[AnimeCollectionsId]) AS [c]
    FROM [AnimeCollections] AS [a]
    WHERE [a].[UserId] = @__request_UserId_0
    ORDER BY (
        SELECT COUNT(*)
        FROM [AnimeCollectionAnimeTitle] AS [a0]
        INNER JOIN [AnimeTitles] AS [a1] ON [a0].[AnimeTitlesId] = [a1].[Id]
        WHERE [a].[Id] = [a0].[AnimeCollectionsId]) DESC
    OFFSET @__p_1 ROWS FETCH NEXT @__p_2 ROWS ONLY
) AS [t]
LEFT JOIN [Images] AS [i] ON [t].[ImageId] = [i].[Id]
ORDER BY [t].[c] DESC
2022-05-03 18:44:20.936 +05:00 [INF] Executing OkObjectResult, writing value of type 'AniRate.Application.Common.Models.PaginatedList`1[[AniRate.Application.AnimeCollections.Queries.BriefCollectionVM, AniRate.Application, Version=1.0.0.0, Culture=neutral, PublicKeyToken=null]]'.
2022-05-03 18:44:20.945 +05:00 [INF] Executed action AniRate.WebApi.Controllers.AnimeCollectionsController.GetAll (AniRate.WebApi) in 613.1668ms
2022-05-03 18:44:20.945 +05:00 [INF] Executed endpoint 'AniRate.WebApi.Controllers.AnimeCollectionsController.GetAll (AniRate.WebApi)'
2022-05-03 18:44:20.946 +05:00 [INF] Request finished HTTP/1.1 GET https://localhost:5001/api/AnimeCollections - - - 200 - application/json;+charset=utf-8 708.2689ms
2022-05-03 18:44:42.647 +05:00 [INF] Request starting HTTP/1.1 PUT https://localhost:5001/api/AnimeCollections/Details application/json 178
2022-05-03 18:44:42.659 +05:00 [INF] Executing endpoint 'AniRate.WebApi.Controllers.AnimeCollectionsController.Update (AniRate.WebApi)'
2022-05-03 18:44:42.663 +05:00 [INF] Route matched with {action = "Update", controller = "AnimeCollections"}. Executing controller action with signature System.Threading.Tasks.Task`1[Microsoft.AspNetCore.Mvc.ActionResult] Update(AniRate.WebApi.Models.AnimeCollectionsDtos.UpdateCollectionDetailsDto) on controller AniRate.WebApi.Controllers.AnimeCollectionsController (AniRate.WebApi).
2022-05-03 18:44:50.271 +05:00 [INF] Executed action AniRate.WebApi.Controllers.AnimeCollectionsController.Update (AniRate.WebApi) in 7608.0345ms
2022-05-03 18:44:50.273 +05:00 [INF] Executed endpoint 'AniRate.WebApi.Controllers.AnimeCollectionsController.Update (AniRate.WebApi)'
2022-05-03 18:44:50.279 +05:00 [ERR] An unhandled exception has occurred while executing the request.
FluentValidation.ValidationException: Validation failed: 
 -- UserRating: Не выполнено указанное условие для 'User Rating'. Severity: Error
   at AniRate.Application.Common.Behaviors.ValidationBehavior`2.Handle(TRequest request, CancellationToken cancellationToken, RequestHandlerDelegate`1 next) in C:\Users\gexop\source\repos\AniRate\AnirateWeb\AniRate\AniRate.Api\AniRate.Application\Common\Behaviors\ValidationBehavior.cs:line 27
   at MediatR.Wrappers.RequestHandlerWrapperImpl`2.<>c__DisplayClass1_1.<Handle>b__2()
   at MediatR.Pipeline.RequestExceptionProcessorBehavior`2.Handle(TRequest request, CancellationToken cancellationToken, RequestHandlerDelegate`1 next)
   at MediatR.Pipeline.RequestExceptionProcessorBehavior`2.Handle(TRequest request, CancellationToken cancellationToken, RequestHandlerDelegate`1 next)
   at MediatR.Pipeline.RequestExceptionActionProcessorBehavior`2.Handle(TRequest request, CancellationToken cancellationToken, RequestHandlerDelegate`1 next)
   at MediatR.Pipeline.RequestExceptionActionProcessorBehavior`2.Handle(TRequest request, CancellationToken cancellationToken, RequestHandlerDelegate`1 next)
   at MediatR.Pipeline.RequestPostProcessorBehavior`2.Handle(TRequest request, CancellationToken cancellationToken, RequestHandlerDelegate`1 next)
   at MediatR.Pipeline.RequestPreProcessorBehavior`2.Handle(TRequest request, CancellationToken cancellationToken, RequestHandlerDelegate`1 next)
   at AniRate.WebApi.Controllers.AnimeCollectionsController.Update(UpdateCollectionDetailsDto updateCollectionDetailsDto) in C:\Users\gexop\source\repos\AniRate\AnirateWeb\AniRate\AniRate.Api\AniRate.WebApi\Controllers\AnimeCollectionsController.cs:line 112
   at lambda_method91(Closure , Object )
   at Microsoft.AspNetCore.Mvc.Infrastructure.ActionMethodExecutor.TaskOfActionResultExecutor.Execute(IActionResultTypeMapper mapper, ObjectMethodExecutor executor, Object controller, Object[] arguments)
   at Microsoft.AspNetCore.Mvc.Infrastructure.ControllerActionInvoker.<InvokeActionMethodAsync>g__Awaited|12_0(ControllerActionInvoker invoker, ValueTask`1 actionResultValueTask)
   at Microsoft.AspNetCore.Mvc.Infrastructure.ControllerActionInvoker.<InvokeNextActionFilterAsync>g__Awaited|10_0(ControllerActionInvoker invoker, Task lastTask, State next, Scope scope, Object state, Boolean isCompleted)
   at Microsoft.AspNetCore.Mvc.Infrastructure.ControllerActionInvoker.Rethrow(ActionExecutedContextSealed context)
   at Microsoft.AspNetCore.Mvc.Infrastructure.ControllerActionInvoker.Next(State& next, Scope& scope, Object& state, Boolean& isCompleted)
   at Microsoft.AspNetCore.Mvc.Infrastructure.ControllerActionInvoker.InvokeInnerFilterAsync()
--- End of stack trace from previous location ---
   at Microsoft.AspNetCore.Mvc.Infrastructure.ResourceInvoker.<InvokeFilterPipelineAsync>g__Awaited|20_0(ResourceInvoker invoker, Task lastTask, State next, Scope scope, Object state, Boolean isCompleted)
   at Microsoft.AspNetCore.Mvc.Infrastructure.ResourceInvoker.<InvokeAsync>g__Logged|17_1(ResourceInvoker invoker)
   at Microsoft.AspNetCore.Mvc.Infrastructure.ResourceInvoker.<InvokeAsync>g__Logged|17_1(ResourceInvoker invoker)
   at Microsoft.AspNetCore.Routing.EndpointMiddleware.<Invoke>g__AwaitRequestTask|6_0(Endpoint endpoint, Task requestTask, ILogger logger)
   at Microsoft.AspNetCore.Authorization.Policy.AuthorizationMiddlewareResultHandler.HandleAsync(RequestDelegate next, HttpContext context, AuthorizationPolicy policy, PolicyAuthorizationResult authorizeResult)
   at Microsoft.AspNetCore.Authorization.AuthorizationMiddleware.Invoke(HttpContext context)
   at Microsoft.AspNetCore.Authentication.AuthenticationMiddleware.Invoke(HttpContext context)
   at Swashbuckle.AspNetCore.SwaggerUI.SwaggerUIMiddleware.Invoke(HttpContext httpContext)
   at Swashbuckle.AspNetCore.Swagger.SwaggerMiddleware.Invoke(HttpContext httpContext, ISwaggerProvider swaggerProvider)
   at Microsoft.AspNetCore.Diagnostics.DeveloperExceptionPageMiddleware.Invoke(HttpContext context)
2022-05-03 18:44:50.398 +05:00 [INF] Request finished HTTP/1.1 PUT https://localhost:5001/api/AnimeCollections/Details application/json 178 - 500 - text/plain;+charset=utf-8 7752.6952ms
2022-05-03 18:44:55.313 +05:00 [INF] Request starting HTTP/1.1 PUT https://localhost:5001/api/AnimeCollections/Details application/json 178
2022-05-03 18:44:55.317 +05:00 [INF] Executing endpoint 'AniRate.WebApi.Controllers.AnimeCollectionsController.Update (AniRate.WebApi)'
2022-05-03 18:44:55.318 +05:00 [INF] Route matched with {action = "Update", controller = "AnimeCollections"}. Executing controller action with signature System.Threading.Tasks.Task`1[Microsoft.AspNetCore.Mvc.ActionResult] Update(AniRate.WebApi.Models.AnimeCollectionsDtos.UpdateCollectionDetailsDto) on controller AniRate.WebApi.Controllers.AnimeCollectionsController (AniRate.WebApi).
2022-05-03 18:44:55.322 +05:00 [INF] AniRate Request: UpdateCollectionDetailsCommand "a9168c5e-ceb2-4faa-b6bf-329bf39fa1e4" {"UserId":"a9168c5e-ceb2-4faa-b6bf-329bf39fa1e4","Id":"4aa3f20a-858a-4d3c-9585-9d3c53b01080","Name":"main changed","UserComment":"changed second","UserRating":10,"$type":"UpdateCollectionDetailsCommand"}
2022-05-03 18:44:55.336 +05:00 [INF] Entity Framework Core 6.0.3 initialized 'ApplicationDbContext' using provider 'Microsoft.EntityFrameworkCore.SqlServer:6.0.3' with options: MigrationsAssembly=AniRate.Infrastructure, Version=1.0.0.0, Culture=neutral, PublicKeyToken=null 
2022-05-03 18:44:55.347 +05:00 [INF] Executed DbCommand (2ms) [Parameters=[@__request_Id_0='?' (DbType = Guid)], CommandType='"Text"', CommandTimeout='30']
SELECT TOP(1) [a].[Id], [a].[ImageId], [a].[Name], [a].[UserComment], [a].[UserId], [a].[UserRating]
FROM [AnimeCollections] AS [a]
WHERE [a].[Id] = @__request_Id_0
2022-05-03 18:44:55.513 +05:00 [INF] Executed DbCommand (4ms) [Parameters=[@p2='?' (DbType = Guid), @p0='?' (Size = 200), @p1='?' (Size = 4000)], CommandType='"Text"', CommandTimeout='30']
SET NOCOUNT ON;
UPDATE [AnimeCollections] SET [Name] = @p0, [UserComment] = @p1
WHERE [Id] = @p2;
SELECT @@ROWCOUNT;
2022-05-03 18:44:55.553 +05:00 [INF] Executing StatusCodeResult, setting HTTP status code 204
2022-05-03 18:44:55.553 +05:00 [INF] Executed action AniRate.WebApi.Controllers.AnimeCollectionsController.Update (AniRate.WebApi) in 235.1839ms
2022-05-03 18:44:55.553 +05:00 [INF] Executed endpoint 'AniRate.WebApi.Controllers.AnimeCollectionsController.Update (AniRate.WebApi)'
2022-05-03 18:44:55.553 +05:00 [INF] Request finished HTTP/1.1 PUT https://localhost:5001/api/AnimeCollections/Details application/json 178 - 204 - - 239.7633ms
2022-05-03 18:45:01.057 +05:00 [INF] Request starting HTTP/1.1 PUT https://localhost:5001/api/AnimeCollections/Details application/json 166
2022-05-03 18:45:01.057 +05:00 [INF] Executing endpoint 'AniRate.WebApi.Controllers.AnimeCollectionsController.Update (AniRate.WebApi)'
2022-05-03 18:45:01.059 +05:00 [INF] Route matched with {action = "Update", controller = "AnimeCollections"}. Executing controller action with signature System.Threading.Tasks.Task`1[Microsoft.AspNetCore.Mvc.ActionResult] Update(AniRate.WebApi.Models.AnimeCollectionsDtos.UpdateCollectionDetailsDto) on controller AniRate.WebApi.Controllers.AnimeCollectionsController (AniRate.WebApi).
2022-05-03 18:45:03.931 +05:00 [INF] Executed action AniRate.WebApi.Controllers.AnimeCollectionsController.Update (AniRate.WebApi) in 2872.3735ms
2022-05-03 18:45:03.932 +05:00 [INF] Executed endpoint 'AniRate.WebApi.Controllers.AnimeCollectionsController.Update (AniRate.WebApi)'
2022-05-03 18:45:03.933 +05:00 [ERR] An unhandled exception has occurred while executing the request.
FluentValidation.ValidationException: Validation failed: 
 -- Name: 'Name' должно быть заполнено. Severity: Error
   at AniRate.Application.Common.Behaviors.ValidationBehavior`2.Handle(TRequest request, CancellationToken cancellationToken, RequestHandlerDelegate`1 next) in C:\Users\gexop\source\repos\AniRate\AnirateWeb\AniRate\AniRate.Api\AniRate.Application\Common\Behaviors\ValidationBehavior.cs:line 27
   at MediatR.Wrappers.RequestHandlerWrapperImpl`2.<>c__DisplayClass1_1.<Handle>b__2()
   at MediatR.Pipeline.RequestExceptionProcessorBehavior`2.Handle(TRequest request, CancellationToken cancellationToken, RequestHandlerDelegate`1 next)
   at MediatR.Pipeline.RequestExceptionProcessorBehavior`2.Handle(TRequest request, CancellationToken cancellationToken, RequestHandlerDelegate`1 next)
   at MediatR.Pipeline.RequestExceptionActionProcessorBehavior`2.Handle(TRequest request, CancellationToken cancellationToken, RequestHandlerDelegate`1 next)
   at MediatR.Pipeline.RequestExceptionActionProcessorBehavior`2.Handle(TRequest request, CancellationToken cancellationToken, RequestHandlerDelegate`1 next)
   at MediatR.Pipeline.RequestPostProcessorBehavior`2.Handle(TRequest request, CancellationToken cancellationToken, RequestHandlerDelegate`1 next)
   at MediatR.Pipeline.RequestPreProcessorBehavior`2.Handle(TRequest request, CancellationToken cancellationToken, RequestHandlerDelegate`1 next)
   at AniRate.WebApi.Controllers.AnimeCollectionsController.Update(UpdateCollectionDetailsDto updateCollectionDetailsDto) in C:\Users\gexop\source\repos\AniRate\AnirateWeb\AniRate\AniRate.Api\AniRate.WebApi\Controllers\AnimeCollectionsController.cs:line 112
   at lambda_method91(Closure , Object )
   at Microsoft.AspNetCore.Mvc.Infrastructure.ActionMethodExecutor.TaskOfActionResultExecutor.Execute(IActionResultTypeMapper mapper, ObjectMethodExecutor executor, Object controller, Object[] arguments)
   at Microsoft.AspNetCore.Mvc.Infrastructure.ControllerActionInvoker.<InvokeActionMethodAsync>g__Awaited|12_0(ControllerActionInvoker invoker, ValueTask`1 actionResultValueTask)
   at Microsoft.AspNetCore.Mvc.Infrastructure.ControllerActionInvoker.<InvokeNextActionFilterAsync>g__Awaited|10_0(ControllerActionInvoker invoker, Task lastTask, State next, Scope scope, Object state, Boolean isCompleted)
   at Microsoft.AspNetCore.Mvc.Infrastructure.ControllerActionInvoker.Rethrow(ActionExecutedContextSealed context)
   at Microsoft.AspNetCore.Mvc.Infrastructure.ControllerActionInvoker.Next(State& next, Scope& scope, Object& state, Boolean& isCompleted)
   at Microsoft.AspNetCore.Mvc.Infrastructure.ControllerActionInvoker.InvokeInnerFilterAsync()
--- End of stack trace from previous location ---
   at Microsoft.AspNetCore.Mvc.Infrastructure.ResourceInvoker.<InvokeFilterPipelineAsync>g__Awaited|20_0(ResourceInvoker invoker, Task lastTask, State next, Scope scope, Object state, Boolean isCompleted)
   at Microsoft.AspNetCore.Mvc.Infrastructure.ResourceInvoker.<InvokeAsync>g__Logged|17_1(ResourceInvoker invoker)
   at Microsoft.AspNetCore.Mvc.Infrastructure.ResourceInvoker.<InvokeAsync>g__Logged|17_1(ResourceInvoker invoker)
   at Microsoft.AspNetCore.Routing.EndpointMiddleware.<Invoke>g__AwaitRequestTask|6_0(Endpoint endpoint, Task requestTask, ILogger logger)
   at Microsoft.AspNetCore.Authorization.Policy.AuthorizationMiddlewareResultHandler.HandleAsync(RequestDelegate next, HttpContext context, AuthorizationPolicy policy, PolicyAuthorizationResult authorizeResult)
   at Microsoft.AspNetCore.Authorization.AuthorizationMiddleware.Invoke(HttpContext context)
   at Microsoft.AspNetCore.Authentication.AuthenticationMiddleware.Invoke(HttpContext context)
   at Swashbuckle.AspNetCore.SwaggerUI.SwaggerUIMiddleware.Invoke(HttpContext httpContext)
   at Swashbuckle.AspNetCore.Swagger.SwaggerMiddleware.Invoke(HttpContext httpContext, ISwaggerProvider swaggerProvider)
   at Microsoft.AspNetCore.Diagnostics.DeveloperExceptionPageMiddleware.Invoke(HttpContext context)
2022-05-03 18:45:03.936 +05:00 [INF] Request finished HTTP/1.1 PUT https://localhost:5001/api/AnimeCollections/Details application/json 166 - 500 - text/plain;+charset=utf-8 2879.4950ms
2022-05-03 18:52:31.583 +05:00 [INF] User profile is available. Using 'C:\Users\gexop\AppData\Local\ASP.NET\DataProtection-Keys' as key repository and Windows DPAPI to encrypt keys at rest.
2022-05-03 18:52:31.869 +05:00 [INF] Now listening on: https://localhost:5001
2022-05-03 18:52:31.869 +05:00 [INF] Now listening on: http://localhost:5000
2022-05-03 18:52:31.872 +05:00 [INF] Application started. Press Ctrl+C to shut down.
2022-05-03 18:52:31.872 +05:00 [INF] Hosting environment: Development
2022-05-03 18:52:31.872 +05:00 [INF] Content root path: C:\Users\gexop\source\repos\AniRate\AnirateWeb\AniRate\AniRate.Api\AniRate.WebApi
2022-05-03 18:52:32.527 +05:00 [INF] Request starting HTTP/2 GET https://localhost:5001/index.html - -
2022-05-03 18:52:32.764 +05:00 [INF] Request finished HTTP/2 GET https://localhost:5001/index.html - - - 200 - text/html;charset=utf-8 240.7666ms
2022-05-03 18:52:32.764 +05:00 [INF] Request starting HTTP/2 GET https://localhost:5001/_framework/aspnetcore-browser-refresh.js - -
2022-05-03 18:52:32.771 +05:00 [INF] Request finished HTTP/2 GET https://localhost:5001/_framework/aspnetcore-browser-refresh.js - - - 200 11986 application/javascript;+charset=utf-8 7.4559ms
2022-05-03 18:52:33.107 +05:00 [INF] Request starting HTTP/2 GET https://localhost:5001/swagger/v1/swagger.json - -
2022-05-03 18:52:33.312 +05:00 [INF] Request finished HTTP/2 GET https://localhost:5001/swagger/v1/swagger.json - - - 200 - application/json;charset=utf-8 204.8755ms
2022-05-03 18:53:37.342 +05:00 [INF] User profile is available. Using 'C:\Users\gexop\AppData\Local\ASP.NET\DataProtection-Keys' as key repository and Windows DPAPI to encrypt keys at rest.
2022-05-03 18:53:37.583 +05:00 [INF] Now listening on: https://localhost:5001
2022-05-03 18:53:37.583 +05:00 [INF] Now listening on: http://localhost:5000
2022-05-03 18:53:37.587 +05:00 [INF] Application started. Press Ctrl+C to shut down.
2022-05-03 18:53:37.587 +05:00 [INF] Hosting environment: Development
2022-05-03 18:53:37.587 +05:00 [INF] Content root path: C:\Users\gexop\source\repos\AniRate\AnirateWeb\AniRate\AniRate.Api\AniRate.WebApi
2022-05-03 18:53:37.949 +05:00 [INF] Request starting HTTP/2 GET https://localhost:5001/index.html - -
2022-05-03 18:53:38.166 +05:00 [INF] Request finished HTTP/2 GET https://localhost:5001/index.html - - - 200 - text/html;charset=utf-8 220.4747ms
2022-05-03 18:53:38.169 +05:00 [INF] Request starting HTTP/2 GET https://localhost:5001/_framework/aspnetcore-browser-refresh.js - -
2022-05-03 18:53:38.172 +05:00 [INF] Request finished HTTP/2 GET https://localhost:5001/_framework/aspnetcore-browser-refresh.js - - - 200 11986 application/javascript;+charset=utf-8 3.1140ms
2022-05-03 18:53:38.536 +05:00 [INF] Request starting HTTP/2 GET https://localhost:5001/swagger/v1/swagger.json - -
2022-05-03 18:53:38.560 +05:00 [INF] Request starting HTTP/2 GET https://localhost:5001/favicon-32x32.png - -
2022-05-03 18:53:38.578 +05:00 [INF] Sending file. Request path: '/favicon-32x32.png'. Physical path: 'N/A'
2022-05-03 18:53:38.579 +05:00 [INF] Request finished HTTP/2 GET https://localhost:5001/favicon-32x32.png - - - 200 628 image/png 18.9791ms
2022-05-03 18:53:38.735 +05:00 [INF] Request finished HTTP/2 GET https://localhost:5001/swagger/v1/swagger.json - - - 200 - application/json;charset=utf-8 198.5471ms
2022-05-03 18:55:19.689 +05:00 [INF] User profile is available. Using 'C:\Users\gexop\AppData\Local\ASP.NET\DataProtection-Keys' as key repository and Windows DPAPI to encrypt keys at rest.
2022-05-03 18:55:19.926 +05:00 [INF] Now listening on: https://localhost:5001
2022-05-03 18:55:19.926 +05:00 [INF] Now listening on: http://localhost:5000
2022-05-03 18:55:19.930 +05:00 [INF] Application started. Press Ctrl+C to shut down.
2022-05-03 18:55:19.930 +05:00 [INF] Hosting environment: Development
2022-05-03 18:55:19.930 +05:00 [INF] Content root path: C:\Users\gexop\source\repos\AniRate\AnirateWeb\AniRate\AniRate.Api\AniRate.WebApi
2022-05-03 18:55:20.332 +05:00 [INF] Request starting HTTP/2 GET https://localhost:5001/index.html - -
2022-05-03 18:55:20.571 +05:00 [INF] Request finished HTTP/2 GET https://localhost:5001/index.html - - - 200 - text/html;charset=utf-8 242.6007ms
2022-05-03 18:55:20.579 +05:00 [INF] Request starting HTTP/2 GET https://localhost:5001/_framework/aspnetcore-browser-refresh.js - -
2022-05-03 18:55:20.582 +05:00 [INF] Request finished HTTP/2 GET https://localhost:5001/_framework/aspnetcore-browser-refresh.js - - - 200 11986 application/javascript;+charset=utf-8 3.1954ms
2022-05-03 18:55:20.990 +05:00 [INF] Request starting HTTP/2 GET https://localhost:5001/swagger/v1/swagger.json - -
2022-05-03 18:55:21.199 +05:00 [INF] Request finished HTTP/2 GET https://localhost:5001/swagger/v1/swagger.json - - - 200 - application/json;charset=utf-8 209.0576ms
2022-05-03 18:56:01.296 +05:00 [INF] User profile is available. Using 'C:\Users\gexop\AppData\Local\ASP.NET\DataProtection-Keys' as key repository and Windows DPAPI to encrypt keys at rest.
2022-05-03 18:56:01.539 +05:00 [INF] Now listening on: https://localhost:5001
2022-05-03 18:56:01.539 +05:00 [INF] Now listening on: http://localhost:5000
2022-05-03 18:56:01.542 +05:00 [INF] Application started. Press Ctrl+C to shut down.
2022-05-03 18:56:01.542 +05:00 [INF] Hosting environment: Development
2022-05-03 18:56:01.542 +05:00 [INF] Content root path: C:\Users\gexop\source\repos\AniRate\AnirateWeb\AniRate\AniRate.Api\AniRate.WebApi
2022-05-03 18:56:02.020 +05:00 [INF] Request starting HTTP/2 GET https://localhost:5001/index.html - -
2022-05-03 18:56:02.249 +05:00 [INF] Request finished HTTP/2 GET https://localhost:5001/index.html - - - 200 - text/html;charset=utf-8 232.8657ms
2022-05-03 18:56:02.259 +05:00 [INF] Request starting HTTP/2 GET https://localhost:5001/_framework/aspnetcore-browser-refresh.js - -
2022-05-03 18:56:02.263 +05:00 [INF] Request finished HTTP/2 GET https://localhost:5001/_framework/aspnetcore-browser-refresh.js - - - 200 11986 application/javascript;+charset=utf-8 3.1833ms
2022-05-03 18:56:02.627 +05:00 [INF] Request starting HTTP/2 GET https://localhost:5001/swagger/v1/swagger.json - -
2022-05-03 18:56:02.879 +05:00 [INF] Request finished HTTP/2 GET https://localhost:5001/swagger/v1/swagger.json - - - 200 - application/json;charset=utf-8 251.4378ms
2022-05-03 18:56:42.361 +05:00 [INF] User profile is available. Using 'C:\Users\gexop\AppData\Local\ASP.NET\DataProtection-Keys' as key repository and Windows DPAPI to encrypt keys at rest.
2022-05-03 18:56:42.629 +05:00 [INF] Now listening on: https://localhost:5001
2022-05-03 18:56:42.629 +05:00 [INF] Now listening on: http://localhost:5000
2022-05-03 18:56:42.633 +05:00 [INF] Application started. Press Ctrl+C to shut down.
2022-05-03 18:56:42.633 +05:00 [INF] Hosting environment: Development
2022-05-03 18:56:42.633 +05:00 [INF] Content root path: C:\Users\gexop\source\repos\AniRate\AnirateWeb\AniRate\AniRate.Api\AniRate.WebApi
2022-05-03 18:56:42.938 +05:00 [INF] Request starting HTTP/2 GET https://localhost:5001/index.html - -
2022-05-03 18:56:43.154 +05:00 [INF] Request finished HTTP/2 GET https://localhost:5001/index.html - - - 200 - text/html;charset=utf-8 219.7302ms
2022-05-03 18:56:43.163 +05:00 [INF] Request starting HTTP/2 GET https://localhost:5001/_framework/aspnetcore-browser-refresh.js - -
2022-05-03 18:56:43.167 +05:00 [INF] Request finished HTTP/2 GET https://localhost:5001/_framework/aspnetcore-browser-refresh.js - - - 200 11986 application/javascript;+charset=utf-8 4.4780ms
2022-05-03 18:57:07.378 +05:00 [INF] User profile is available. Using 'C:\Users\gexop\AppData\Local\ASP.NET\DataProtection-Keys' as key repository and Windows DPAPI to encrypt keys at rest.
2022-05-03 18:57:07.630 +05:00 [INF] Now listening on: https://localhost:5001
2022-05-03 18:57:07.631 +05:00 [INF] Now listening on: http://localhost:5000
2022-05-03 18:57:07.635 +05:00 [INF] Application started. Press Ctrl+C to shut down.
2022-05-03 18:57:07.635 +05:00 [INF] Hosting environment: Development
2022-05-03 18:57:07.635 +05:00 [INF] Content root path: C:\Users\gexop\source\repos\AniRate\AnirateWeb\AniRate\AniRate.Api\AniRate.WebApi
2022-05-03 18:57:08.198 +05:00 [INF] Request starting HTTP/2 GET https://localhost:5001/index.html - -
2022-05-03 18:57:08.440 +05:00 [INF] Request finished HTTP/2 GET https://localhost:5001/index.html - - - 200 - text/html;charset=utf-8 247.3890ms
2022-05-03 18:57:08.451 +05:00 [INF] Request starting HTTP/2 GET https://localhost:5001/_framework/aspnetcore-browser-refresh.js - -
2022-05-03 18:57:08.455 +05:00 [INF] Request finished HTTP/2 GET https://localhost:5001/_framework/aspnetcore-browser-refresh.js - - - 200 11986 application/javascript;+charset=utf-8 3.8773ms
2022-05-03 18:57:08.785 +05:00 [INF] Request starting HTTP/2 GET https://localhost:5001/swagger/v1/swagger.json - -
2022-05-03 18:57:09.051 +05:00 [INF] Request finished HTTP/2 GET https://localhost:5001/swagger/v1/swagger.json - - - 200 - application/json;charset=utf-8 266.5703ms
2022-05-03 18:58:36.124 +05:00 [INF] User profile is available. Using 'C:\Users\gexop\AppData\Local\ASP.NET\DataProtection-Keys' as key repository and Windows DPAPI to encrypt keys at rest.
2022-05-03 18:58:36.368 +05:00 [INF] Now listening on: https://localhost:5001
2022-05-03 18:58:36.368 +05:00 [INF] Now listening on: http://localhost:5000
2022-05-03 18:58:36.372 +05:00 [INF] Application started. Press Ctrl+C to shut down.
2022-05-03 18:58:36.372 +05:00 [INF] Hosting environment: Development
2022-05-03 18:58:36.372 +05:00 [INF] Content root path: C:\Users\gexop\source\repos\AniRate\AnirateWeb\AniRate\AniRate.Api\AniRate.WebApi
2022-05-03 18:58:36.901 +05:00 [INF] Request starting HTTP/2 GET https://localhost:5001/index.html - -
2022-05-03 18:58:37.156 +05:00 [INF] Request finished HTTP/2 GET https://localhost:5001/index.html - - - 200 - text/html;charset=utf-8 259.5285ms
2022-05-03 18:58:37.165 +05:00 [INF] Request starting HTTP/2 GET https://localhost:5001/_framework/aspnetcore-browser-refresh.js - -
2022-05-03 18:58:37.169 +05:00 [INF] Request finished HTTP/2 GET https://localhost:5001/_framework/aspnetcore-browser-refresh.js - - - 200 11986 application/javascript;+charset=utf-8 3.4179ms
2022-05-03 18:58:37.543 +05:00 [INF] Request starting HTTP/2 GET https://localhost:5001/swagger/v1/swagger.json - -
2022-05-03 18:58:37.728 +05:00 [INF] Request finished HTTP/2 GET https://localhost:5001/swagger/v1/swagger.json - - - 200 - application/json;charset=utf-8 184.9539ms
2022-05-03 18:59:24.575 +05:00 [INF] User profile is available. Using 'C:\Users\gexop\AppData\Local\ASP.NET\DataProtection-Keys' as key repository and Windows DPAPI to encrypt keys at rest.
2022-05-03 18:59:24.809 +05:00 [INF] Now listening on: https://localhost:5001
2022-05-03 18:59:24.809 +05:00 [INF] Now listening on: http://localhost:5000
2022-05-03 18:59:24.812 +05:00 [INF] Application started. Press Ctrl+C to shut down.
2022-05-03 18:59:24.813 +05:00 [INF] Hosting environment: Development
2022-05-03 18:59:24.813 +05:00 [INF] Content root path: C:\Users\gexop\source\repos\AniRate\AnirateWeb\AniRate\AniRate.Api\AniRate.WebApi
2022-05-03 18:59:25.456 +05:00 [INF] Request starting HTTP/2 GET https://localhost:5001/index.html - -
2022-05-03 18:59:25.709 +05:00 [INF] Request finished HTTP/2 GET https://localhost:5001/index.html - - - 200 - text/html;charset=utf-8 263.1714ms
2022-05-03 18:59:25.720 +05:00 [INF] Request starting HTTP/2 GET https://localhost:5001/_framework/aspnetcore-browser-refresh.js - -
2022-05-03 18:59:25.724 +05:00 [INF] Request finished HTTP/2 GET https://localhost:5001/_framework/aspnetcore-browser-refresh.js - - - 200 11986 application/javascript;+charset=utf-8 3.1781ms
2022-05-03 18:59:26.101 +05:00 [INF] Request starting HTTP/2 GET https://localhost:5001/swagger/v1/swagger.json - -
2022-05-03 18:59:26.336 +05:00 [INF] Request finished HTTP/2 GET https://localhost:5001/swagger/v1/swagger.json - - - 200 - application/json;charset=utf-8 235.0849ms
